%YAML 1.1
%TAG !u! tag:unity3d.com,2011:
--- !u!114 &11400000
MonoBehaviour:
  m_ObjectHideFlags: 0
  m_CorrespondingSourceObject: {fileID: 0}
  m_PrefabInstance: {fileID: 0}
  m_PrefabAsset: {fileID: 0}
  m_GameObject: {fileID: 0}
  m_Enabled: 1
  m_EditorHideFlags: 0
  m_Script: {fileID: 11500000, guid: 6203e2954705a2445a324daec7b75787, type: 3}
  m_Name: Ship4T_1
  m_EditorClassIdentifier: 
  shipName: 4 Tile Ship
  shipSize: 4
  Player: 1
  shipCube: {fileID: 448411795526814852, guid: 92b9bd3787fef354484cc9b0484f7338, type: 3}
